%YAML 1.1
%TAG !u! tag:unity3d.com,2011:
--- !u!74 &7400000
AnimationClip:
  m_ObjectHideFlags: 0
  m_CorrespondingSourceObject: {fileID: 0}
  m_PrefabInstance: {fileID: 0}
  m_PrefabAsset: {fileID: 0}
  m_Name: Walk
  serializedVersion: 6
  m_Legacy: 0
  m_Compressed: 0
  m_UseHighQualityCurve: 1
  m_RotationCurves: []
  m_CompressedRotationCurves: []
  m_EulerCurves: []
  m_PositionCurves: []
  m_ScaleCurves: []
  m_FloatCurves: []
  m_PPtrCurves:
  - curve:
    - time: 0
      value: {fileID: 1789334159052624462, guid: fe2009691f0e1294db5a3b5973e39da6,
        type: 3}
    - time: 0.083333336
      value: {fileID: -5628379241645343021, guid: fe2009691f0e1294db5a3b5973e39da6,
        type: 3}
    - time: 0.16666667
      value: {fileID: 7551685680278527315, guid: fe2009691f0e1294db5a3b5973e39da6,
        type: 3}
    - time: 0.25
      value: {fileID: 3886801485594954297, guid: fe2009691f0e1294db5a3b5973e39da6,
        type: 3}
    - time: 0.33333334
      value: {fileID: 527127466340265244, guid: fe2009691f0e1294db5a3b5973e39da6,
        type: 3}
    - time: 0.41666666
      value: {fileID: -6180541615782474158, guid: fe2009691f0e1294db5a3b5973e39da6,
        type: 3}
    - time: 0.5
      value: {fileID: -81299986322694013, guid: fe2009691f0e1294db5a3b5973e39da6,
        type: 3}
    - time: 0.5833333
      value: {fileID: -8680108617024676552, guid: fe2009691f0e1294db5a3b5973e39da6,
        type: 3}
    - time: 0.6666667
      value: {fileID: -2770425797088426804, guid: fe2009691f0e1294db5a3b5973e39da6,
        type: 3}
    - time: 0.75
      value: {fileID: -9120714251040310324, guid: fe2009691f0e1294db5a3b5973e39da6,
        type: 3}
    - time: 0.8333333
      value: {fileID: 5233235199371817014, guid: fe2009691f0e1294db5a3b5973e39da6,
        type: 3}
    - time: 0.9166667
      value: {fileID: 8460435315218397092, guid: fe2009691f0e1294db5a3b5973e39da6,
        type: 3}
    - time: 1
      value: {fileID: -8189388822038481356, guid: fe2009691f0e1294db5a3b5973e39da6,
        type: 3}
    - time: 1.0833334
      value: {fileID: 2410104874280410403, guid: fe2009691f0e1294db5a3b5973e39da6,
        type: 3}
    - time: 1.1666666
      value: {fileID: -738384203429034412, guid: fe2009691f0e1294db5a3b5973e39da6,
        type: 3}
    - time: 1.25
      value: {fileID: -8598766399753868393, guid: fe2009691f0e1294db5a3b5973e39da6,
        type: 3}
    - time: 1.3333334
      value: {fileID: 4080632393786861294, guid: fe2009691f0e1294db5a3b5973e39da6,
        type: 3}
    - time: 1.4166666
      value: {fileID: -9159284628941036996, guid: fe2009691f0e1294db5a3b5973e39da6,
        type: 3}
    - time: 1.5
      value: {fileID: 1983433639539164674, guid: fe2009691f0e1294db5a3b5973e39da6,
        type: 3}
    - time: 1.5833334
      value: {fileID: -681847598730841104, guid: fe2009691f0e1294db5a3b5973e39da6,
        type: 3}
    - time: 1.6666666
      value: {fileID: -4980581774786732998, guid: fe2009691f0e1294db5a3b5973e39da6,
        type: 3}
    - time: 1.75
      value: {fileID: -7301294977406283411, guid: fe2009691f0e1294db5a3b5973e39da6,
        type: 3}
    - time: 1.8333334
      value: {fileID: -5605583258923402359, guid: fe2009691f0e1294db5a3b5973e39da6,
        type: 3}
    - time: 1.9166666
      value: {fileID: 4464964236301415805, guid: fe2009691f0e1294db5a3b5973e39da6,
        type: 3}
    - time: 2
      value: {fileID: 8043472742021967270, guid: fe2009691f0e1294db5a3b5973e39da6,
        type: 3}
    - time: 2.0833333
      value: {fileID: 5525257317878204300, guid: fe2009691f0e1294db5a3b5973e39da6,
        type: 3}
    - time: 2.1666667
      value: {fileID: -8547099404303754552, guid: fe2009691f0e1294db5a3b5973e39da6,
        type: 3}
    - time: 2.25
      value: {fileID: -4877682349019238891, guid: fe2009691f0e1294db5a3b5973e39da6,
        type: 3}
    - time: 2.3333333
      value: {fileID: -6499541532098441802, guid: fe2009691f0e1294db5a3b5973e39da6,
        type: 3}
    - time: 2.4166667
      value: {fileID: 2889292335627582288, guid: fe2009691f0e1294db5a3b5973e39da6,
        type: 3}
    - time: 2.5
      value: {fileID: 7457843528094014989, guid: fe2009691f0e1294db5a3b5973e39da6,
        type: 3}
    - time: 2.5833333
      value: {fileID: -4611166769531599168, guid: fe2009691f0e1294db5a3b5973e39da6,
        type: 3}
    - time: 2.6666667
      value: {fileID: 5210431025902176107, guid: fe2009691f0e1294db5a3b5973e39da6,
        type: 3}
    - time: 2.75
      value: {fileID: -6980967836905979680, guid: fe2009691f0e1294db5a3b5973e39da6,
        type: 3}
    - time: 2.8333333
      value: {fileID: -7913509865854727182, guid: fe2009691f0e1294db5a3b5973e39da6,
        type: 3}
    - time: 2.9166667
      value: {fileID: 2859217063306267053, guid: fe2009691f0e1294db5a3b5973e39da6,
        type: 3}
    - time: 3
      value: {fileID: 2002619457362407626, guid: fe2009691f0e1294db5a3b5973e39da6,
        type: 3}
    - time: 3.0833333
      value: {fileID: 976020111825883854, guid: fe2009691f0e1294db5a3b5973e39da6,
        type: 3}
    - time: 3.1666667
      value: {fileID: 4226732538702149239, guid: fe2009691f0e1294db5a3b5973e39da6,
        type: 3}
    - time: 3.25
      value: {fileID: -7086315373032138395, guid: fe2009691f0e1294db5a3b5973e39da6,
        type: 3}
    - time: 3.3333333
      value: {fileID: 2086789729518863975, guid: fe2009691f0e1294db5a3b5973e39da6,
        type: 3}
    - time: 3.4166667
      value: {fileID: -8610910184184374168, guid: fe2009691f0e1294db5a3b5973e39da6,
        type: 3}
    - time: 3.5
      value: {fileID: 7998295709019484952, guid: fe2009691f0e1294db5a3b5973e39da6,
        type: 3}
    - time: 3.5833333
      value: {fileID: -3666287615993775607, guid: fe2009691f0e1294db5a3b5973e39da6,
        type: 3}
    - time: 3.6666667
      value: {fileID: -1307017812179790691, guid: fe2009691f0e1294db5a3b5973e39da6,
        type: 3}
    - time: 3.75
      value: {fileID: 8641207158998223721, guid: fe2009691f0e1294db5a3b5973e39da6,
        type: 3}
    - time: 3.8333333
      value: {fileID: 8310820460691240130, guid: fe2009691f0e1294db5a3b5973e39da6,
        type: 3}
    - time: 3.9166667
      value: {fileID: -4961462926895703233, guid: fe2009691f0e1294db5a3b5973e39da6,
        type: 3}
    - time: 4
      value: {fileID: -7008728832347785815, guid: fe2009691f0e1294db5a3b5973e39da6,
        type: 3}
    - time: 4.0833335
      value: {fileID: 848858127255915462, guid: fe2009691f0e1294db5a3b5973e39da6,
        type: 3}
    - time: 4.1666665
      value: {fileID: -7031357799351875393, guid: fe2009691f0e1294db5a3b5973e39da6,
        type: 3}
    - time: 4.25
      value: {fileID: 2729488541231864076, guid: fe2009691f0e1294db5a3b5973e39da6,
        type: 3}
    - time: 4.3333335
      value: {fileID: -1646260738125229119, guid: fe2009691f0e1294db5a3b5973e39da6,
        type: 3}
    - time: 4.4166665
      value: {fileID: 1963008992658242005, guid: fe2009691f0e1294db5a3b5973e39da6,
        type: 3}
    - time: 4.5
      value: {fileID: -5077294665071906380, guid: fe2009691f0e1294db5a3b5973e39da6,
        type: 3}
    - time: 4.5833335
      value: {fileID: -6821694413994974954, guid: fe2009691f0e1294db5a3b5973e39da6,
        type: 3}
    - time: 4.6666665
      value: {fileID: 8459123511927509984, guid: fe2009691f0e1294db5a3b5973e39da6,
        type: 3}
    - time: 4.75
      value: {fileID: 8717263594883590136, guid: fe2009691f0e1294db5a3b5973e39da6,
        type: 3}
    - time: 4.8333335
      value: {fileID: -453543766945440566, guid: fe2009691f0e1294db5a3b5973e39da6,
        type: 3}
    - time: 4.9166665
      value: {fileID: 48440725573386576, guid: fe2009691f0e1294db5a3b5973e39da6, type: 3}
    - time: 5
      value: {fileID: 6640184659633163430, guid: fe2009691f0e1294db5a3b5973e39da6,
        type: 3}
    - time: 5.0833335
      value: {fileID: -3643542721471606297, guid: fe2009691f0e1294db5a3b5973e39da6,
        type: 3}
    - time: 5.1666665
      value: {fileID: -6488231022132054413, guid: fe2009691f0e1294db5a3b5973e39da6,
        type: 3}
    - time: 5.25
      value: {fileID: -4514194666883948924, guid: fe2009691f0e1294db5a3b5973e39da6,
        type: 3}
    - time: 5.3333335
      value: {fileID: 3846665213758314294, guid: fe2009691f0e1294db5a3b5973e39da6,
        type: 3}
    - time: 5.4166665
      value: {fileID: 995559062360163336, guid: fe2009691f0e1294db5a3b5973e39da6,
        type: 3}
    - time: 5.5
      value: {fileID: 4289029933679932294, guid: fe2009691f0e1294db5a3b5973e39da6,
        type: 3}
    - time: 5.5833335
      value: {fileID: -3977155680699744503, guid: fe2009691f0e1294db5a3b5973e39da6,
        type: 3}
    - time: 5.6666665
      value: {fileID: -4754787369546899618, guid: fe2009691f0e1294db5a3b5973e39da6,
        type: 3}
    - time: 5.75
      value: {fileID: 4671266444387941136, guid: fe2009691f0e1294db5a3b5973e39da6,
        type: 3}
    - time: 5.8333335
      value: {fileID: -7380334184125666922, guid: fe2009691f0e1294db5a3b5973e39da6,
        type: 3}
    - time: 5.9166665
      value: {fileID: -2112128574646196748, guid: fe2009691f0e1294db5a3b5973e39da6,
        type: 3}
    - time: 6
      value: {fileID: 3944846818167894203, guid: fe2009691f0e1294db5a3b5973e39da6,
        type: 3}
    - time: 6.0833335
      value: {fileID: 6912748380985056078, guid: fe2009691f0e1294db5a3b5973e39da6,
        type: 3}
    - time: 6.1666665
      value: {fileID: 2672226015960433423, guid: fe2009691f0e1294db5a3b5973e39da6,
        type: 3}
    - time: 6.25
      value: {fileID: 4921587841268612898, guid: fe2009691f0e1294db5a3b5973e39da6,
        type: 3}
    - time: 6.3333335
      value: {fileID: 3275126339543861883, guid: fe2009691f0e1294db5a3b5973e39da6,
        type: 3}
    - time: 6.4166665
      value: {fileID: 4668294663260641947, guid: fe2009691f0e1294db5a3b5973e39da6,
        type: 3}
    - time: 6.5
      value: {fileID: 2084420797513021487, guid: fe2009691f0e1294db5a3b5973e39da6,
        type: 3}
    - time: 6.5833335
      value: {fileID: 5651824963937258199, guid: fe2009691f0e1294db5a3b5973e39da6,
        type: 3}
    - time: 6.6666665
      value: {fileID: -311789768706724812, guid: fe2009691f0e1294db5a3b5973e39da6,
        type: 3}
    - time: 6.75
      value: {fileID: -1037351401315300242, guid: fe2009691f0e1294db5a3b5973e39da6,
        type: 3}
    - time: 6.8333335
      value: {fileID: 2053224617009595010, guid: fe2009691f0e1294db5a3b5973e39da6,
        type: 3}
    - time: 6.9166665
      value: {fileID: -524711881090411678, guid: fe2009691f0e1294db5a3b5973e39da6,
        type: 3}
    - time: 7
      value: {fileID: 7499179141663313317, guid: fe2009691f0e1294db5a3b5973e39da6,
        type: 3}
    - time: 7.0833335
      value: {fileID: -4710287838817292889, guid: fe2009691f0e1294db5a3b5973e39da6,
        type: 3}
    - time: 7.1666665
      value: {fileID: 3486891838881222267, guid: fe2009691f0e1294db5a3b5973e39da6,
        type: 3}
    - time: 7.25
      value: {fileID: -3340163502795447729, guid: fe2009691f0e1294db5a3b5973e39da6,
        type: 3}
    - time: 7.3333335
      value: {fileID: -5826744824382668996, guid: fe2009691f0e1294db5a3b5973e39da6,
        type: 3}
    - time: 7.4166665
      value: {fileID: -5107531152266769982, guid: fe2009691f0e1294db5a3b5973e39da6,
        type: 3}
    - time: 7.5
      value: {fileID: 5108130428393150315, guid: fe2009691f0e1294db5a3b5973e39da6,
        type: 3}
    - time: 7.5833335
      value: {fileID: -3915541247157649984, guid: fe2009691f0e1294db5a3b5973e39da6,
        type: 3}
    - time: 7.6666665
      value: {fileID: -7141693530837987931, guid: fe2009691f0e1294db5a3b5973e39da6,
        type: 3}
    - time: 7.75
      value: {fileID: 3192786850764323232, guid: fe2009691f0e1294db5a3b5973e39da6,
        type: 3}
    - time: 7.8333335
      value: {fileID: -4975847117485177679, guid: fe2009691f0e1294db5a3b5973e39da6,
        type: 3}
    - time: 7.9166665
      value: {fileID: 5717130275911120228, guid: fe2009691f0e1294db5a3b5973e39da6,
        type: 3}
    - time: 8
      value: {fileID: -2227525822148303254, guid: fe2009691f0e1294db5a3b5973e39da6,
        type: 3}
    - time: 8.083333
      value: {fileID: 5967094734598604006, guid: fe2009691f0e1294db5a3b5973e39da6,
        type: 3}
    - time: 8.166667
      value: {fileID: -5451488978751239624, guid: fe2009691f0e1294db5a3b5973e39da6,
        type: 3}
    - time: 8.25
      value: {fileID: -1277930743924290409, guid: fe2009691f0e1294db5a3b5973e39da6,
        type: 3}
    - time: 8.333333
      value: {fileID: 2556948342944805734, guid: fe2009691f0e1294db5a3b5973e39da6,
        type: 3}
    - time: 8.416667
      value: {fileID: 1348111551705523684, guid: fe2009691f0e1294db5a3b5973e39da6,
        type: 3}
    - time: 8.5
      value: {fileID: -3500676584495329903, guid: fe2009691f0e1294db5a3b5973e39da6,
        type: 3}
    - time: 8.583333
      value: {fileID: -3166515316367214662, guid: fe2009691f0e1294db5a3b5973e39da6,
        type: 3}
    - time: 8.666667
      value: {fileID: 4766267076336466049, guid: fe2009691f0e1294db5a3b5973e39da6,
        type: 3}
    - time: 8.75
      value: {fileID: -869603345807928066, guid: fe2009691f0e1294db5a3b5973e39da6,
        type: 3}
    - time: 8.833333
      value: {fileID: -5743649910746727140, guid: fe2009691f0e1294db5a3b5973e39da6,
        type: 3}
    - time: 8.916667
      value: {fileID: -8101186960393673182, guid: fe2009691f0e1294db5a3b5973e39da6,
        type: 3}
    - time: 9
      value: {fileID: -8662174846369276465, guid: fe2009691f0e1294db5a3b5973e39da6,
        type: 3}
    - time: 9.083333
      value: {fileID: -1020294102410217290, guid: fe2009691f0e1294db5a3b5973e39da6,
        type: 3}
    - time: 9.166667
      value: {fileID: -3110649487382141253, guid: fe2009691f0e1294db5a3b5973e39da6,
        type: 3}
    - time: 9.25
      value: {fileID: 8522290033395429874, guid: fe2009691f0e1294db5a3b5973e39da6,
        type: 3}
    - time: 9.333333
      value: {fileID: 6875543272264061214, guid: fe2009691f0e1294db5a3b5973e39da6,
        type: 3}
    - time: 9.416667
      value: {fileID: -6951313241717151462, guid: fe2009691f0e1294db5a3b5973e39da6,
        type: 3}
    - time: 9.5
      value: {fileID: 5623667086782139866, guid: fe2009691f0e1294db5a3b5973e39da6,
        type: 3}
    - time: 9.583333
      value: {fileID: 1753366925721416744, guid: fe2009691f0e1294db5a3b5973e39da6,
        type: 3}
    - time: 9.666667
      value: {fileID: -8043648927078441854, guid: fe2009691f0e1294db5a3b5973e39da6,
        type: 3}
    - time: 9.75
      value: {fileID: 836735763780530747, guid: fe2009691f0e1294db5a3b5973e39da6,
        type: 3}
    - time: 9.833333
      value: {fileID: 4157322635922492665, guid: fe2009691f0e1294db5a3b5973e39da6,
        type: 3}
    - time: 9.916667
      value: {fileID: -2008731406188126277, guid: fe2009691f0e1294db5a3b5973e39da6,
        type: 3}
    - time: 10
      value: {fileID: 7865205900074962590, guid: fe2009691f0e1294db5a3b5973e39da6,
        type: 3}
    - time: 10.083333
      value: {fileID: 5234528887127213005, guid: fe2009691f0e1294db5a3b5973e39da6,
        type: 3}
    - time: 10.166667
      value: {fileID: 5194599913402535557, guid: fe2009691f0e1294db5a3b5973e39da6,
        type: 3}
    - time: 10.25
      value: {fileID: -1355062533156961276, guid: fe2009691f0e1294db5a3b5973e39da6,
        type: 3}
    - time: 10.333333
      value: {fileID: 7015026667769068486, guid: fe2009691f0e1294db5a3b5973e39da6,
        type: 3}
    - time: 10.416667
      value: {fileID: 1746918800639759845, guid: fe2009691f0e1294db5a3b5973e39da6,
        type: 3}
    - time: 10.5
      value: {fileID: -1831923678018922280, guid: fe2009691f0e1294db5a3b5973e39da6,
        type: 3}
    - time: 10.583333
      value: {fileID: 183657906424203428, guid: fe2009691f0e1294db5a3b5973e39da6,
        type: 3}
    - time: 10.666667
      value: {fileID: 6279335932203240131, guid: fe2009691f0e1294db5a3b5973e39da6,
        type: 3}
    - time: 10.75
      value: {fileID: 8630906140972577873, guid: fe2009691f0e1294db5a3b5973e39da6,
        type: 3}
    - time: 10.833333
      value: {fileID: 6971568006771510850, guid: fe2009691f0e1294db5a3b5973e39da6,
        type: 3}
    - time: 10.916667
      value: {fileID: 4858366268090536341, guid: fe2009691f0e1294db5a3b5973e39da6,
        type: 3}
    - time: 11
      value: {fileID: -2667690343314307875, guid: fe2009691f0e1294db5a3b5973e39da6,
        type: 3}
    - time: 11.083333
      value: {fileID: -5510903777805128605, guid: fe2009691f0e1294db5a3b5973e39da6,
        type: 3}
    - time: 11.166667
      value: {fileID: -4270513131533575176, guid: fe2009691f0e1294db5a3b5973e39da6,
        type: 3}
    - time: 11.25
      value: {fileID: -7075387508465850758, guid: fe2009691f0e1294db5a3b5973e39da6,
        type: 3}
    - time: 11.333333
      value: {fileID: 504599220290986724, guid: fe2009691f0e1294db5a3b5973e39da6,
        type: 3}
    - time: 11.416667
      value: {fileID: -8126706001951961046, guid: fe2009691f0e1294db5a3b5973e39da6,
        type: 3}
    - time: 11.5
      value: {fileID: -4776386882088482724, guid: fe2009691f0e1294db5a3b5973e39da6,
        type: 3}
    - time: 11.583333
      value: {fileID: -6008621102722580819, guid: fe2009691f0e1294db5a3b5973e39da6,
        type: 3}
    - time: 11.666667
      value: {fileID: 4172219421997743092, guid: fe2009691f0e1294db5a3b5973e39da6,
        type: 3}
    - time: 11.75
      value: {fileID: -4288144070861852662, guid: fe2009691f0e1294db5a3b5973e39da6,
        type: 3}
    - time: 11.833333
      value: {fileID: -2936318229044329061, guid: fe2009691f0e1294db5a3b5973e39da6,
        type: 3}
    - time: 11.916667
      value: {fileID: -5798736416198999452, guid: fe2009691f0e1294db5a3b5973e39da6,
        type: 3}
    - time: 12
      value: {fileID: 6777410226595715521, guid: fe2009691f0e1294db5a3b5973e39da6,
        type: 3}
    - time: 12.083333
      value: {fileID: -8859891112747093022, guid: fe2009691f0e1294db5a3b5973e39da6,
        type: 3}
    - time: 12.166667
      value: {fileID: 5351735068014973544, guid: fe2009691f0e1294db5a3b5973e39da6,
        type: 3}
    - time: 12.25
      value: {fileID: 4229868126825631074, guid: fe2009691f0e1294db5a3b5973e39da6,
        type: 3}
    - time: 12.333333
      value: {fileID: -3458798563619646877, guid: fe2009691f0e1294db5a3b5973e39da6,
        type: 3}
    - time: 12.416667
      value: {fileID: 2070588003708053366, guid: fe2009691f0e1294db5a3b5973e39da6,
        type: 3}
    - time: 12.5
      value: {fileID: 210174607558364281, guid: fe2009691f0e1294db5a3b5973e39da6,
        type: 3}
    - time: 12.583333
      value: {fileID: -4656576698379988843, guid: fe2009691f0e1294db5a3b5973e39da6,
        type: 3}
    - time: 12.666667
      value: {fileID: 3203030455498714905, guid: fe2009691f0e1294db5a3b5973e39da6,
        type: 3}
    - time: 12.75
      value: {fileID: 7267681139005741910, guid: fe2009691f0e1294db5a3b5973e39da6,
        type: 3}
    - time: 12.833333
      value: {fileID: 8715446424924106054, guid: fe2009691f0e1294db5a3b5973e39da6,
        type: 3}
    - time: 12.916667
      value: {fileID: 4416075443855214793, guid: fe2009691f0e1294db5a3b5973e39da6,
        type: 3}
    - time: 13
      value: {fileID: 744235339683326285, guid: fe2009691f0e1294db5a3b5973e39da6,
        type: 3}
    - time: 13.083333
      value: {fileID: -8934948252254592517, guid: fe2009691f0e1294db5a3b5973e39da6,
        type: 3}
    - time: 13.166667
      value: {fileID: -5121190830871462775, guid: fe2009691f0e1294db5a3b5973e39da6,
        type: 3}
    - time: 13.25
      value: {fileID: 1938185143979107360, guid: fe2009691f0e1294db5a3b5973e39da6,
        type: 3}
    - time: 13.333333
      value: {fileID: -8070294626567872647, guid: fe2009691f0e1294db5a3b5973e39da6,
        type: 3}
    - time: 13.416667
      value: {fileID: -7616470599326991711, guid: fe2009691f0e1294db5a3b5973e39da6,
        type: 3}
    - time: 13.5
      value: {fileID: 7102719169808267305, guid: fe2009691f0e1294db5a3b5973e39da6,
        type: 3}
    - time: 13.583333
      value: {fileID: 4705411102057492117, guid: fe2009691f0e1294db5a3b5973e39da6,
        type: 3}
    - time: 13.666667
      value: {fileID: 3751158207172024971, guid: fe2009691f0e1294db5a3b5973e39da6,
        type: 3}
    - time: 13.75
      value: {fileID: 8800060224794537559, guid: fe2009691f0e1294db5a3b5973e39da6,
        type: 3}
    - time: 13.833333
      value: {fileID: 3986066042694127282, guid: fe2009691f0e1294db5a3b5973e39da6,
        type: 3}
    - time: 13.916667
      value: {fileID: 302156353719919261, guid: fe2009691f0e1294db5a3b5973e39da6,
        type: 3}
    - time: 14
      value: {fileID: -8550329879364388873, guid: fe2009691f0e1294db5a3b5973e39da6,
        type: 3}
    - time: 14.083333
      value: {fileID: -6807305588090940202, guid: fe2009691f0e1294db5a3b5973e39da6,
        type: 3}
    - time: 14.166667
      value: {fileID: 1399983992179407397, guid: fe2009691f0e1294db5a3b5973e39da6,
        type: 3}
    - time: 14.25
      value: {fileID: -122835884673224844, guid: fe2009691f0e1294db5a3b5973e39da6,
        type: 3}
    - time: 14.333333
      value: {fileID: 6260099636547278719, guid: fe2009691f0e1294db5a3b5973e39da6,
        type: 3}
    - time: 14.416667
      value: {fileID: 7144527109409672762, guid: fe2009691f0e1294db5a3b5973e39da6,
        type: 3}
    - time: 14.5
      value: {fileID: 503773503070750670, guid: fe2009691f0e1294db5a3b5973e39da6,
        type: 3}
    - time: 14.583333
      value: {fileID: 3570082965117012602, guid: fe2009691f0e1294db5a3b5973e39da6,
        type: 3}
    - time: 14.666667
      value: {fileID: 7953805499977252330, guid: fe2009691f0e1294db5a3b5973e39da6,
        type: 3}
    - time: 14.75
      value: {fileID: 867317671619289795, guid: fe2009691f0e1294db5a3b5973e39da6,
        type: 3}
    - time: 14.833333
      value: {fileID: -7766167018987022913, guid: fe2009691f0e1294db5a3b5973e39da6,
        type: 3}
    - time: 14.916667
      value: {fileID: 2637229472945642466, guid: fe2009691f0e1294db5a3b5973e39da6,
        type: 3}
    - time: 15
      value: {fileID: -3258700326069417639, guid: fe2009691f0e1294db5a3b5973e39da6,
        type: 3}
    - time: 15.083333
      value: {fileID: -6901694281220660406, guid: fe2009691f0e1294db5a3b5973e39da6,
        type: 3}
    - time: 15.166667
      value: {fileID: -4040402058195103675, guid: fe2009691f0e1294db5a3b5973e39da6,
        type: 3}
    attribute: m_Sprite
    path: 
    classID: 212
    script: {fileID: 0}
  m_SampleRate: 12
  m_WrapMode: 0
  m_Bounds:
    m_Center: {x: 0, y: 0, z: 0}
    m_Extent: {x: 0, y: 0, z: 0}
  m_ClipBindingConstant:
    genericBindings:
    - serializedVersion: 2
      path: 0
      attribute: 0
      script: {fileID: 0}
      typeID: 212
      customType: 23
      isPPtrCurve: 1
    pptrCurveMapping:
    - {fileID: 1789334159052624462, guid: fe2009691f0e1294db5a3b5973e39da6, type: 3}
    - {fileID: -5628379241645343021, guid: fe2009691f0e1294db5a3b5973e39da6, type: 3}
    - {fileID: 7551685680278527315, guid: fe2009691f0e1294db5a3b5973e39da6, type: 3}
    - {fileID: 3886801485594954297, guid: fe2009691f0e1294db5a3b5973e39da6, type: 3}
    - {fileID: 527127466340265244, guid: fe2009691f0e1294db5a3b5973e39da6, type: 3}
    - {fileID: -6180541615782474158, guid: fe2009691f0e1294db5a3b5973e39da6, type: 3}
    - {fileID: -81299986322694013, guid: fe2009691f0e1294db5a3b5973e39da6, type: 3}
    - {fileID: -8680108617024676552, guid: fe2009691f0e1294db5a3b5973e39da6, type: 3}
    - {fileID: -2770425797088426804, guid: fe2009691f0e1294db5a3b5973e39da6, type: 3}
    - {fileID: -9120714251040310324, guid: fe2009691f0e1294db5a3b5973e39da6, type: 3}
    - {fileID: 5233235199371817014, guid: fe2009691f0e1294db5a3b5973e39da6, type: 3}
    - {fileID: 8460435315218397092, guid: fe2009691f0e1294db5a3b5973e39da6, type: 3}
    - {fileID: -8189388822038481356, guid: fe2009691f0e1294db5a3b5973e39da6, type: 3}
    - {fileID: 2410104874280410403, guid: fe2009691f0e1294db5a3b5973e39da6, type: 3}
    - {fileID: -738384203429034412, guid: fe2009691f0e1294db5a3b5973e39da6, type: 3}
    - {fileID: -8598766399753868393, guid: fe2009691f0e1294db5a3b5973e39da6, type: 3}
    - {fileID: 4080632393786861294, guid: fe2009691f0e1294db5a3b5973e39da6, type: 3}
    - {fileID: -9159284628941036996, guid: fe2009691f0e1294db5a3b5973e39da6, type: 3}
    - {fileID: 1983433639539164674, guid: fe2009691f0e1294db5a3b5973e39da6, type: 3}
    - {fileID: -681847598730841104, guid: fe2009691f0e1294db5a3b5973e39da6, type: 3}
    - {fileID: -4980581774786732998, guid: fe2009691f0e1294db5a3b5973e39da6, type: 3}
    - {fileID: -7301294977406283411, guid: fe2009691f0e1294db5a3b5973e39da6, type: 3}
    - {fileID: -5605583258923402359, guid: fe2009691f0e1294db5a3b5973e39da6, type: 3}
    - {fileID: 4464964236301415805, guid: fe2009691f0e1294db5a3b5973e39da6, type: 3}
    - {fileID: 8043472742021967270, guid: fe2009691f0e1294db5a3b5973e39da6, type: 3}
    - {fileID: 5525257317878204300, guid: fe2009691f0e1294db5a3b5973e39da6, type: 3}
    - {fileID: -8547099404303754552, guid: fe2009691f0e1294db5a3b5973e39da6, type: 3}
    - {fileID: -4877682349019238891, guid: fe2009691f0e1294db5a3b5973e39da6, type: 3}
    - {fileID: -6499541532098441802, guid: fe2009691f0e1294db5a3b5973e39da6, type: 3}
    - {fileID: 2889292335627582288, guid: fe2009691f0e1294db5a3b5973e39da6, type: 3}
    - {fileID: 7457843528094014989, guid: fe2009691f0e1294db5a3b5973e39da6, type: 3}
    - {fileID: -4611166769531599168, guid: fe2009691f0e1294db5a3b5973e39da6, type: 3}
    - {fileID: 5210431025902176107, guid: fe2009691f0e1294db5a3b5973e39da6, type: 3}
    - {fileID: -6980967836905979680, guid: fe2009691f0e1294db5a3b5973e39da6, type: 3}
    - {fileID: -7913509865854727182, guid: fe2009691f0e1294db5a3b5973e39da6, type: 3}
    - {fileID: 2859217063306267053, guid: fe2009691f0e1294db5a3b5973e39da6, type: 3}
    - {fileID: 2002619457362407626, guid: fe2009691f0e1294db5a3b5973e39da6, type: 3}
    - {fileID: 976020111825883854, guid: fe2009691f0e1294db5a3b5973e39da6, type: 3}
    - {fileID: 4226732538702149239, guid: fe2009691f0e1294db5a3b5973e39da6, type: 3}
    - {fileID: -7086315373032138395, guid: fe2009691f0e1294db5a3b5973e39da6, type: 3}
    - {fileID: 2086789729518863975, guid: fe2009691f0e1294db5a3b5973e39da6, type: 3}
    - {fileID: -8610910184184374168, guid: fe2009691f0e1294db5a3b5973e39da6, type: 3}
    - {fileID: 7998295709019484952, guid: fe2009691f0e1294db5a3b5973e39da6, type: 3}
    - {fileID: -3666287615993775607, guid: fe2009691f0e1294db5a3b5973e39da6, type: 3}
    - {fileID: -1307017812179790691, guid: fe2009691f0e1294db5a3b5973e39da6, type: 3}
    - {fileID: 8641207158998223721, guid: fe2009691f0e1294db5a3b5973e39da6, type: 3}
    - {fileID: 8310820460691240130, guid: fe2009691f0e1294db5a3b5973e39da6, type: 3}
    - {fileID: -4961462926895703233, guid: fe2009691f0e1294db5a3b5973e39da6, type: 3}
    - {fileID: -7008728832347785815, guid: fe2009691f0e1294db5a3b5973e39da6, type: 3}
    - {fileID: 848858127255915462, guid: fe2009691f0e1294db5a3b5973e39da6, type: 3}
    - {fileID: -7031357799351875393, guid: fe2009691f0e1294db5a3b5973e39da6, type: 3}
    - {fileID: 2729488541231864076, guid: fe2009691f0e1294db5a3b5973e39da6, type: 3}
    - {fileID: -1646260738125229119, guid: fe2009691f0e1294db5a3b5973e39da6, type: 3}
    - {fileID: 1963008992658242005, guid: fe2009691f0e1294db5a3b5973e39da6, type: 3}
    - {fileID: -5077294665071906380, guid: fe2009691f0e1294db5a3b5973e39da6, type: 3}
    - {fileID: -6821694413994974954, guid: fe2009691f0e1294db5a3b5973e39da6, type: 3}
    - {fileID: 8459123511927509984, guid: fe2009691f0e1294db5a3b5973e39da6, type: 3}
    - {fileID: 8717263594883590136, guid: fe2009691f0e1294db5a3b5973e39da6, type: 3}
    - {fileID: -453543766945440566, guid: fe2009691f0e1294db5a3b5973e39da6, type: 3}
    - {fileID: 48440725573386576, guid: fe2009691f0e1294db5a3b5973e39da6, type: 3}
    - {fileID: 6640184659633163430, guid: fe2009691f0e1294db5a3b5973e39da6, type: 3}
    - {fileID: -3643542721471606297, guid: fe2009691f0e1294db5a3b5973e39da6, type: 3}
    - {fileID: -6488231022132054413, guid: fe2009691f0e1294db5a3b5973e39da6, type: 3}
    - {fileID: -4514194666883948924, guid: fe2009691f0e1294db5a3b5973e39da6, type: 3}
    - {fileID: 3846665213758314294, guid: fe2009691f0e1294db5a3b5973e39da6, type: 3}
    - {fileID: 995559062360163336, guid: fe2009691f0e1294db5a3b5973e39da6, type: 3}
    - {fileID: 4289029933679932294, guid: fe2009691f0e1294db5a3b5973e39da6, type: 3}
    - {fileID: -3977155680699744503, guid: fe2009691f0e1294db5a3b5973e39da6, type: 3}
    - {fileID: -4754787369546899618, guid: fe2009691f0e1294db5a3b5973e39da6, type: 3}
    - {fileID: 4671266444387941136, guid: fe2009691f0e1294db5a3b5973e39da6, type: 3}
    - {fileID: -7380334184125666922, guid: fe2009691f0e1294db5a3b5973e39da6, type: 3}
    - {fileID: -2112128574646196748, guid: fe2009691f0e1294db5a3b5973e39da6, type: 3}
    - {fileID: 3944846818167894203, guid: fe2009691f0e1294db5a3b5973e39da6, type: 3}
    - {fileID: 6912748380985056078, guid: fe2009691f0e1294db5a3b5973e39da6, type: 3}
    - {fileID: 2672226015960433423, guid: fe2009691f0e1294db5a3b5973e39da6, type: 3}
    - {fileID: 4921587841268612898, guid: fe2009691f0e1294db5a3b5973e39da6, type: 3}
    - {fileID: 3275126339543861883, guid: fe2009691f0e1294db5a3b5973e39da6, type: 3}
    - {fileID: 4668294663260641947, guid: fe2009691f0e1294db5a3b5973e39da6, type: 3}
    - {fileID: 2084420797513021487, guid: fe2009691f0e1294db5a3b5973e39da6, type: 3}
    - {fileID: 5651824963937258199, guid: fe2009691f0e1294db5a3b5973e39da6, type: 3}
    - {fileID: -311789768706724812, guid: fe2009691f0e1294db5a3b5973e39da6, type: 3}
    - {fileID: -1037351401315300242, guid: fe2009691f0e1294db5a3b5973e39da6, type: 3}
    - {fileID: 2053224617009595010, guid: fe2009691f0e1294db5a3b5973e39da6, type: 3}
    - {fileID: -524711881090411678, guid: fe2009691f0e1294db5a3b5973e39da6, type: 3}
    - {fileID: 7499179141663313317, guid: fe2009691f0e1294db5a3b5973e39da6, type: 3}
    - {fileID: -4710287838817292889, guid: fe2009691f0e1294db5a3b5973e39da6, type: 3}
    - {fileID: 3486891838881222267, guid: fe2009691f0e1294db5a3b5973e39da6, type: 3}
    - {fileID: -3340163502795447729, guid: fe2009691f0e1294db5a3b5973e39da6, type: 3}
    - {fileID: -5826744824382668996, guid: fe2009691f0e1294db5a3b5973e39da6, type: 3}
    - {fileID: -5107531152266769982, guid: fe2009691f0e1294db5a3b5973e39da6, type: 3}
    - {fileID: 5108130428393150315, guid: fe2009691f0e1294db5a3b5973e39da6, type: 3}
    - {fileID: -3915541247157649984, guid: fe2009691f0e1294db5a3b5973e39da6, type: 3}
    - {fileID: -7141693530837987931, guid: fe2009691f0e1294db5a3b5973e39da6, type: 3}
    - {fileID: 3192786850764323232, guid: fe2009691f0e1294db5a3b5973e39da6, type: 3}
    - {fileID: -4975847117485177679, guid: fe2009691f0e1294db5a3b5973e39da6, type: 3}
    - {fileID: 5717130275911120228, guid: fe2009691f0e1294db5a3b5973e39da6, type: 3}
    - {fileID: -2227525822148303254, guid: fe2009691f0e1294db5a3b5973e39da6, type: 3}
    - {fileID: 5967094734598604006, guid: fe2009691f0e1294db5a3b5973e39da6, type: 3}
    - {fileID: -5451488978751239624, guid: fe2009691f0e1294db5a3b5973e39da6, type: 3}
    - {fileID: -1277930743924290409, guid: fe2009691f0e1294db5a3b5973e39da6, type: 3}
    - {fileID: 2556948342944805734, guid: fe2009691f0e1294db5a3b5973e39da6, type: 3}
    - {fileID: 1348111551705523684, guid: fe2009691f0e1294db5a3b5973e39da6, type: 3}
    - {fileID: -3500676584495329903, guid: fe2009691f0e1294db5a3b5973e39da6, type: 3}
    - {fileID: -3166515316367214662, guid: fe2009691f0e1294db5a3b5973e39da6, type: 3}
    - {fileID: 4766267076336466049, guid: fe2009691f0e1294db5a3b5973e39da6, type: 3}
    - {fileID: -869603345807928066, guid: fe2009691f0e1294db5a3b5973e39da6, type: 3}
    - {fileID: -5743649910746727140, guid: fe2009691f0e1294db5a3b5973e39da6, type: 3}
    - {fileID: -8101186960393673182, guid: fe2009691f0e1294db5a3b5973e39da6, type: 3}
    - {fileID: -8662174846369276465, guid: fe2009691f0e1294db5a3b5973e39da6, type: 3}
    - {fileID: -1020294102410217290, guid: fe2009691f0e1294db5a3b5973e39da6, type: 3}
    - {fileID: -3110649487382141253, guid: fe2009691f0e1294db5a3b5973e39da6, type: 3}
    - {fileID: 8522290033395429874, guid: fe2009691f0e1294db5a3b5973e39da6, type: 3}
    - {fileID: 6875543272264061214, guid: fe2009691f0e1294db5a3b5973e39da6, type: 3}
    - {fileID: -6951313241717151462, guid: fe2009691f0e1294db5a3b5973e39da6, type: 3}
    - {fileID: 5623667086782139866, guid: fe2009691f0e1294db5a3b5973e39da6, type: 3}
    - {fileID: 1753366925721416744, guid: fe2009691f0e1294db5a3b5973e39da6, type: 3}
    - {fileID: -8043648927078441854, guid: fe2009691f0e1294db5a3b5973e39da6, type: 3}
    - {fileID: 836735763780530747, guid: fe2009691f0e1294db5a3b5973e39da6, type: 3}
    - {fileID: 4157322635922492665, guid: fe2009691f0e1294db5a3b5973e39da6, type: 3}
    - {fileID: -2008731406188126277, guid: fe2009691f0e1294db5a3b5973e39da6, type: 3}
    - {fileID: 7865205900074962590, guid: fe2009691f0e1294db5a3b5973e39da6, type: 3}
    - {fileID: 5234528887127213005, guid: fe2009691f0e1294db5a3b5973e39da6, type: 3}
    - {fileID: 5194599913402535557, guid: fe2009691f0e1294db5a3b5973e39da6, type: 3}
    - {fileID: -1355062533156961276, guid: fe2009691f0e1294db5a3b5973e39da6, type: 3}
    - {fileID: 7015026667769068486, guid: fe2009691f0e1294db5a3b5973e39da6, type: 3}
    - {fileID: 1746918800639759845, guid: fe2009691f0e1294db5a3b5973e39da6, type: 3}
    - {fileID: -1831923678018922280, guid: fe2009691f0e1294db5a3b5973e39da6, type: 3}
    - {fileID: 183657906424203428, guid: fe2009691f0e1294db5a3b5973e39da6, type: 3}
    - {fileID: 6279335932203240131, guid: fe2009691f0e1294db5a3b5973e39da6, type: 3}
    - {fileID: 8630906140972577873, guid: fe2009691f0e1294db5a3b5973e39da6, type: 3}
    - {fileID: 6971568006771510850, guid: fe2009691f0e1294db5a3b5973e39da6, type: 3}
    - {fileID: 4858366268090536341, guid: fe2009691f0e1294db5a3b5973e39da6, type: 3}
    - {fileID: -2667690343314307875, guid: fe2009691f0e1294db5a3b5973e39da6, type: 3}
    - {fileID: -5510903777805128605, guid: fe2009691f0e1294db5a3b5973e39da6, type: 3}
    - {fileID: -4270513131533575176, guid: fe2009691f0e1294db5a3b5973e39da6, type: 3}
    - {fileID: -7075387508465850758, guid: fe2009691f0e1294db5a3b5973e39da6, type: 3}
    - {fileID: 504599220290986724, guid: fe2009691f0e1294db5a3b5973e39da6, type: 3}
    - {fileID: -8126706001951961046, guid: fe2009691f0e1294db5a3b5973e39da6, type: 3}
    - {fileID: -4776386882088482724, guid: fe2009691f0e1294db5a3b5973e39da6, type: 3}
    - {fileID: -6008621102722580819, guid: fe2009691f0e1294db5a3b5973e39da6, type: 3}
    - {fileID: 4172219421997743092, guid: fe2009691f0e1294db5a3b5973e39da6, type: 3}
    - {fileID: -4288144070861852662, guid: fe2009691f0e1294db5a3b5973e39da6, type: 3}
    - {fileID: -2936318229044329061, guid: fe2009691f0e1294db5a3b5973e39da6, type: 3}
    - {fileID: -5798736416198999452, guid: fe2009691f0e1294db5a3b5973e39da6, type: 3}
    - {fileID: 6777410226595715521, guid: fe2009691f0e1294db5a3b5973e39da6, type: 3}
    - {fileID: -8859891112747093022, guid: fe2009691f0e1294db5a3b5973e39da6, type: 3}
    - {fileID: 5351735068014973544, guid: fe2009691f0e1294db5a3b5973e39da6, type: 3}
    - {fileID: 4229868126825631074, guid: fe2009691f0e1294db5a3b5973e39da6, type: 3}
    - {fileID: -3458798563619646877, guid: fe2009691f0e1294db5a3b5973e39da6, type: 3}
    - {fileID: 2070588003708053366, guid: fe2009691f0e1294db5a3b5973e39da6, type: 3}
    - {fileID: 210174607558364281, guid: fe2009691f0e1294db5a3b5973e39da6, type: 3}
    - {fileID: -4656576698379988843, guid: fe2009691f0e1294db5a3b5973e39da6, type: 3}
    - {fileID: 3203030455498714905, guid: fe2009691f0e1294db5a3b5973e39da6, type: 3}
    - {fileID: 7267681139005741910, guid: fe2009691f0e1294db5a3b5973e39da6, type: 3}
    - {fileID: 8715446424924106054, guid: fe2009691f0e1294db5a3b5973e39da6, type: 3}
    - {fileID: 4416075443855214793, guid: fe2009691f0e1294db5a3b5973e39da6, type: 3}
    - {fileID: 744235339683326285, guid: fe2009691f0e1294db5a3b5973e39da6, type: 3}
    - {fileID: -8934948252254592517, guid: fe2009691f0e1294db5a3b5973e39da6, type: 3}
    - {fileID: -5121190830871462775, guid: fe2009691f0e1294db5a3b5973e39da6, type: 3}
    - {fileID: 1938185143979107360, guid: fe2009691f0e1294db5a3b5973e39da6, type: 3}
    - {fileID: -8070294626567872647, guid: fe2009691f0e1294db5a3b5973e39da6, type: 3}
    - {fileID: -7616470599326991711, guid: fe2009691f0e1294db5a3b5973e39da6, type: 3}
    - {fileID: 7102719169808267305, guid: fe2009691f0e1294db5a3b5973e39da6, type: 3}
    - {fileID: 4705411102057492117, guid: fe2009691f0e1294db5a3b5973e39da6, type: 3}
    - {fileID: 3751158207172024971, guid: fe2009691f0e1294db5a3b5973e39da6, type: 3}
    - {fileID: 8800060224794537559, guid: fe2009691f0e1294db5a3b5973e39da6, type: 3}
    - {fileID: 3986066042694127282, guid: fe2009691f0e1294db5a3b5973e39da6, type: 3}
    - {fileID: 302156353719919261, guid: fe2009691f0e1294db5a3b5973e39da6, type: 3}
    - {fileID: -8550329879364388873, guid: fe2009691f0e1294db5a3b5973e39da6, type: 3}
    - {fileID: -6807305588090940202, guid: fe2009691f0e1294db5a3b5973e39da6, type: 3}
    - {fileID: 1399983992179407397, guid: fe2009691f0e1294db5a3b5973e39da6, type: 3}
    - {fileID: -122835884673224844, guid: fe2009691f0e1294db5a3b5973e39da6, type: 3}
    - {fileID: 6260099636547278719, guid: fe2009691f0e1294db5a3b5973e39da6, type: 3}
    - {fileID: 7144527109409672762, guid: fe2009691f0e1294db5a3b5973e39da6, type: 3}
    - {fileID: 503773503070750670, guid: fe2009691f0e1294db5a3b5973e39da6, type: 3}
    - {fileID: 3570082965117012602, guid: fe2009691f0e1294db5a3b5973e39da6, type: 3}
    - {fileID: 7953805499977252330, guid: fe2009691f0e1294db5a3b5973e39da6, type: 3}
    - {fileID: 867317671619289795, guid: fe2009691f0e1294db5a3b5973e39da6, type: 3}
    - {fileID: -7766167018987022913, guid: fe2009691f0e1294db5a3b5973e39da6, type: 3}
    - {fileID: 2637229472945642466, guid: fe2009691f0e1294db5a3b5973e39da6, type: 3}
    - {fileID: -3258700326069417639, guid: fe2009691f0e1294db5a3b5973e39da6, type: 3}
    - {fileID: -6901694281220660406, guid: fe2009691f0e1294db5a3b5973e39da6, type: 3}
    - {fileID: -4040402058195103675, guid: fe2009691f0e1294db5a3b5973e39da6, type: 3}
  m_AnimationClipSettings:
    serializedVersion: 2
    m_AdditiveReferencePoseClip: {fileID: 0}
    m_AdditiveReferencePoseTime: 0
    m_StartTime: 0
    m_StopTime: 15.25
    m_OrientationOffsetY: 0
    m_Level: 0
    m_CycleOffset: 0
    m_HasAdditiveReferencePose: 0
    m_LoopTime: 1
    m_LoopBlend: 0
    m_LoopBlendOrientation: 0
    m_LoopBlendPositionY: 0
    m_LoopBlendPositionXZ: 0
    m_KeepOriginalOrientation: 0
    m_KeepOriginalPositionY: 1
    m_KeepOriginalPositionXZ: 0
    m_HeightFromFeet: 0
    m_Mirror: 0
  m_EditorCurves: []
  m_EulerEditorCurves: []
  m_HasGenericRootTransform: 0
  m_HasMotionFloatCurves: 0
  m_Events: []
