%YAML 1.1
%TAG !u! tag:unity3d.com,2011:
--- !u!1 &8640437809810345444
GameObject:
  m_ObjectHideFlags: 0
  m_CorrespondingSourceObject: {fileID: 0}
  m_PrefabInstance: {fileID: 0}
  m_PrefabAsset: {fileID: 0}
  serializedVersion: 6
  m_Component:
  - component: {fileID: 8749382921530880832}
  - component: {fileID: 1072454154006123979}
  - component: {fileID: -5408655978680752086}
  m_Layer: 0
  m_Name: Manojo_trigo
  m_TagString: Untagged
  m_Icon: {fileID: 0}
  m_NavMeshLayer: 0
  m_StaticEditorFlags: 0
  m_IsActive: 1
--- !u!4 &8749382921530880832
Transform:
  m_ObjectHideFlags: 0
  m_CorrespondingSourceObject: {fileID: 0}
  m_PrefabInstance: {fileID: 0}
  m_PrefabAsset: {fileID: 0}
  m_GameObject: {fileID: 8640437809810345444}
  m_LocalRotation: {x: -0, y: -0, z: -0, w: 1}
  m_LocalPosition: {x: 0, y: 0, z: 0}
  m_LocalScale: {x: 1, y: 1, z: 1}
  m_Children: []
  m_Father: {fileID: 0}
  m_RootOrder: 0
  m_LocalEulerAnglesHint: {x: 0, y: 0, z: 0}
--- !u!212 &1072454154006123979
SpriteRenderer:
  m_ObjectHideFlags: 0
  m_CorrespondingSourceObject: {fileID: 0}
  m_PrefabInstance: {fileID: 0}
  m_PrefabAsset: {fileID: 0}
  m_GameObject: {fileID: 8640437809810345444}
  m_Enabled: 1
  m_CastShadows: 0
  m_ReceiveShadows: 0
  m_DynamicOccludee: 1
  m_MotionVectors: 1
  m_LightProbeUsage: 1
  m_ReflectionProbeUsage: 1
  m_RenderingLayerMask: 1
  m_RendererPriority: 0
  m_Materials:
  - {fileID: 10754, guid: 0000000000000000f000000000000000, type: 0}
  m_StaticBatchInfo:
    firstSubMesh: 0
    subMeshCount: 0
  m_StaticBatchRoot: {fileID: 0}
  m_ProbeAnchor: {fileID: 0}
  m_LightProbeVolumeOverride: {fileID: 0}
  m_ScaleInLightmap: 1
  m_PreserveUVs: 0
  m_IgnoreNormalsForChartDetection: 0
  m_ImportantGI: 0
  m_StitchLightmapSeams: 1
  m_SelectedEditorRenderState: 0
  m_MinimumChartSize: 4
  m_AutoUVMaxDistance: 0.5
  m_AutoUVMaxAngle: 89
  m_LightmapParameters: {fileID: 0}
  m_SortingLayerID: 0
  m_SortingLayer: 0
  m_SortingOrder: 300
  m_Sprite: {fileID: 21300000, guid: 6165c7663bbf29649b9363707a393139, type: 3}
  m_Color: {r: 1, g: 1, b: 1, a: 1}
  m_FlipX: 0
  m_FlipY: 0
  m_DrawMode: 0
  m_Size: {x: 1.18, y: 1.18}
  m_AdaptiveModeThreshold: 0.5
  m_SpriteTileMode: 0
  m_WasSpriteAssigned: 1
  m_MaskInteraction: 0
  m_SpriteSortPoint: 0
--- !u!60 &-5408655978680752086
PolygonCollider2D:
  m_ObjectHideFlags: 0
  m_CorrespondingSourceObject: {fileID: 0}
  m_PrefabInstance: {fileID: 0}
  m_PrefabAsset: {fileID: 0}
  m_GameObject: {fileID: 8640437809810345444}
  m_Enabled: 1
  m_Density: 1
  m_Material: {fileID: 0}
  m_IsTrigger: 0
  m_UsedByEffector: 0
  m_UsedByComposite: 0
  m_Offset: {x: 0, y: 0}
  m_SpriteTilingProperty:
    border: {x: 0, y: 0, z: 0, w: 0}
    pivot: {x: 0.5, y: 0.5}
    oldSize: {x: 1.18, y: 1.18}
    newSize: {x: 1.18, y: 1.18}
    adaptiveTilingThreshold: 0.5
    drawMode: 0
    adaptiveTiling: 0
  m_AutoTiling: 0
  m_Points:
    m_Paths:
    - - {x: -0.06, y: -0.089999996}
      - {x: 0.03, y: -0.08}
      - {x: 0.07, y: -0.049999997}
      - {x: 0.25, y: -0.13}
      - {x: 0.44, y: -0.08}
      - {x: 0.39999998, y: 0.01}
      - {x: 0.45999998, y: -0.01}
      - {x: 0.48999998, y: 0.03}
      - {x: 0.53, y: 0.13}
      - {x: 0.55, y: 0.24}
      - {x: 0.55, y: 0.32999998}
      - {x: 0.53999996, y: 0.35999998}
      - {x: 0.45999998, y: 0.45}
      - {x: 0.26999998, y: 0.52}
      - {x: 0.14999999, y: 0.52}
      - {x: 0.02, y: 0.48}
      - {x: -0.12, y: 0.32}
      - {x: -0.38, y: 0.08}
      - {x: -0.55, y: -0.12}
      - {x: -0.57, y: -0.17999999}
      - {x: -0.51, y: -0.45999998}
      - {x: -0.42999998, y: -0.57}
      - {x: -0.42, y: -0.58}
      - {x: -0.35999998, y: -0.58}
      - {x: -0.32999998, y: -0.57}
      - {x: -0.22, y: -0.48999998}
      - {x: -0.14, y: -0.38}
      - {x: -0.12, y: -0.16}
